<?xml version="1.0" standalone="no"?>
<!DOCTYPE svg PUBLIC "-//W3C//DTD SVG 1.1//EN" "http://www.w3.org/Graphics/SVG/1.1/DTD/svg11.dtd" >
<svg xmlns="http://www.w3.org/2000/svg">
<defs>
  <font id="icons" horiz-adv-x="1000.9999999999999">
    <font-face font-family="icons"
      units-per-em="1001" ascent="1001"
      descent="0" />
    <missing-glyph horiz-adv-x="0" />
    <glyph glyph-name="instagram"
      unicode="&#xEA03;"
      horiz-adv-x="1000.9999999999999" d="M500.4999999999999 910.8098999999997C634.1334999999999 910.8098999999997 649.9693199999998 910.3093999999998 702.7019999999999 907.907C751.5107599999999 905.68478 777.99722 897.5166199999999 795.6348399999999 890.66978A155.19503999999998 155.19503999999998 0 0 0 853.19234 853.2323799999999A155.19503999999998 155.19503999999998 0 0 0 890.6297399999999 795.6748799999999C897.4765799999999 778.0372599999998 905.64474 751.6308799999999 907.86696 702.7420399999999C910.2693599999998 649.9693199999999 910.7698599999998 634.1334999999999 910.7698599999998 500.5400399999999S910.2693599999998 351.07072 907.86696 298.33804C905.64474 249.52928 897.4765799999999 223.0428199999999 890.6297399999999 205.4051999999999A165.68551999999997 165.68551999999997 0 0 0 795.6348399999999 110.4102999999999C777.99722 103.56346 751.59084 95.3952999999999 702.7019999999999 93.1730799999999C649.92928 90.77068 634.11348 90.27018 500.4999999999999 90.27018S351.03068 90.77068 298.298 93.1730799999999C249.48924 95.3952999999999 223.00278 103.56346 205.36516 110.4102999999999A155.19503999999998 155.19503999999998 0 0 0 147.80766 147.8476999999999A155.19503999999998 155.19503999999998 0 0 0 110.37026 205.4051999999999C103.52342 223.0428199999999 95.35526 249.4491999999999 93.13304 298.33804C90.73064 351.1107599999999 90.23014 366.94658 90.23014 500.5400399999999S90.73064 650.0093599999999 93.13304 702.7420399999999C95.35526 751.5507999999999 103.52342 778.0372599999998 110.37026 795.6748799999999A155.19503999999998 155.19503999999998 0 0 0 147.80766 853.2323799999999A155.19503999999998 155.19503999999998 0 0 0 205.36516 890.6697799999998C223.00278 897.5166199999999 249.40916 905.6847799999998 298.298 907.907C351.07072 910.3093999999998 366.90654 910.8098999999997 500.4999999999999 910.8098999999997M500.4999999999999 1000.8998999999998C364.5642 1000.8998999999998 347.52718 1000.3193199999998 294.15386 997.8968999999998S204.48428 987.10612 172.65248 974.7337599999998A245.36511999999993 245.36511999999993 0 0 1 84.084 916.916A245.36511999999993 245.36511999999993 0 0 1 26.26624 828.3475199999999C13.89388 796.5157199999999 5.44544 760.1193599999999 3.003 706.8461399999999S0 636.4358 0 500.4999999999999S0.58058 347.5271800000001 3.003 294.15386S13.89388 204.4842799999999 26.26624 172.65248A245.36511999999993 245.36511999999993 0 0 1 84.084 84.084A245.36511999999993 245.36511999999993 0 0 1 172.73256 26.34632C204.56436 13.97396 240.96072 5.5255200000001 294.23394 3.08308S364.5642 0 500.4999999999999 0S653.4728199999998 0.5805800000001 706.8461399999999 3.003S796.51572 13.89388 828.3475199999999 26.26624A256.03577999999993 256.03577999999993 0 0 1 974.7337599999998 172.65248C987.10612 204.4842799999999 995.5545599999998 240.88064 997.9969999999998 294.15386S1000.9999999999998 364.5642000000001 1000.9999999999998 500.4999999999999S1000.4194199999998 653.47282 997.9969999999998 706.8461399999999S987.10612 796.5157199999999 974.7337599999998 828.3475199999999A245.36511999999993 245.36511999999993 0 0 1 916.916 916.916A245.36511999999993 245.36511999999993 0 0 1 828.26744 974.6536799999998C796.43564 987.0260399999999 760.03928 995.4744799999997 706.7660599999999 997.9169199999998S636.4357999999999 1000.9999999999998 500.4999999999999 1000.9999999999998zM500.4999999999999 757.5167599999999A257.0167599999999 257.0167599999999 0 1 1 757.5167599999999 500.4999999999999A257.0167599999999 257.0167599999999 0 0 1 500.4999999999999 757.5167599999999zM500.4999999999999 333.6733399999999A166.82665999999998 166.82665999999998 0 1 0 667.32666 500.4999999999999A166.82665999999998 166.82665999999998 0 0 0 500.4999999999999 333.67334zM707.6068999999999 767.6668999999999A60.05999999999999 60.05999999999999 0 0 1 827.7268999999999 767.6668999999999A60.05999999999999 60.05999999999999 0 0 1 707.6068999999999 767.6668999999999" />
    <glyph glyph-name="facebook"
      unicode="&#xEA04;"
      horiz-adv-x="1000.9999999999999" d="M577.9974199999999 0V456.5961399999999H731.2705399999999L754.2134599999999 634.6339999999999H578.03746V748.1674199999999C578.03746 799.6788799999999 592.3517599999999 834.7939599999999 666.22556 834.7939599999999L760.4597 834.7939599999999V993.993C744.1233799999999 996.15516 688.1874999999999 1000.9999999999998 623.1024799999999 1000.9999999999998C487.2467599999999 1000.9999999999998 394.23384 918.07716 394.23384 765.7850199999999V634.6339999999999H240.58034V456.6762199999999H394.23384V0z" />
    <glyph glyph-name="youtube"
      unicode="&#xEA05;"
      horiz-adv-x="1000.9999999999999" d="M406.06566 316.53622V684.3836999999999L688.5478599999999 500.4999999999999zM985.84486 682.3216399999999C972.7517799999998 754.7539999999999 896.3954999999999 822.8219999999999 826.3455199999999 830.5697399999999A3303.2999999999993 3303.2999999999993 0 0 1 174.63446 830.5697399999999C104.56446 822.80198 28.2282 754.8941399999999 15.17516 682.3216399999999A1096.7156199999997 1096.7156199999997 0 0 1 15.17516 318.6383199999999C28.2282 246.1258799999998 104.64454 178.1579799999999 174.63446 170.4903199999999A3291.1478599999996 3291.1478599999996 0 0 1 826.3455199999999 170.4903199999999C896.4155199999999 178.1579799999999 972.7517799999998 246.1258799999998 985.84486 318.6383199999999A1098.8577599999999 1098.8577599999999 0 0 1 985.84486 682.3216399999999" />
    <glyph glyph-name="twitter"
      unicode="&#xEA06;"
      horiz-adv-x="1000.9999999999999" d="M1000.9999999999998 810.9501399999999A409.9895799999999 409.9895799999999 0 0 0 883.0421599999999 778.6178399999999A205.90569999999997 205.90569999999997 0 0 1 973.35238 892.2313399999998A411.55113999999986 411.55113999999986 0 0 0 842.9421 842.3815399999999A205.58537999999996 205.58537999999996 0 0 1 492.97248 655.0744199999999A583.0424599999999 583.0424599999999 0 0 0 69.68962 869.6487799999999A205.58537999999996 205.58537999999996 0 0 1 133.2331 595.3747799999999A204.56436 204.56436 0 0 0 40.22018 621.06044C40.22018 620.19958 40.22018 619.33872 40.22018 618.47786A205.50529999999995 205.50529999999995 0 0 1 204.96476 417.09668A206.20599999999996 206.20599999999996 0 0 0 112.112 413.69328A205.56535999999997 205.56535999999997 0 0 1 303.96366 271.0708A411.9915799999999 411.9915799999999 0 0 0 48.90886 183.1429599999999A416.41599999999994 416.41599999999994 0 0 0 0 186.02584A581.2406599999998 581.2406599999998 0 0 1 314.8145 93.7536600000001C692.5518599999999 93.7536600000001 899.11822 406.68628 899.11822 678.0774Q899.11822 691.4107200000001 898.5176199999999 704.64394A416.95653999999996 416.95653999999996 0 0 1 1000.9999999999998 810.9501399999999z" />
  </font>
</defs>
</svg>
